…
print("Summary of Day-wise (daily) dataframes:")
```

    ## [1] "Summary of Day-wise (daily) dataframes:"

``` r
fbt_daily_activity_merged %>% 
  group_by(id) %>% 
  filter(total_steps == 0 & sedentary_minutes == 1440) %>% 
  select(activity_date_dt,sedentary_minutes,total_steps,calories)
```

    ## Adding missing grouping variables: `id`

    ## # A tibble: 72 × 5
    ## # Groups:   id [15]
    ##            id activity_date_dt sedentary_minutes total_steps calories
    ##         <dbl> <date>                       <dbl>       <dbl>    <dbl>
    ##  1 1503960366 2016-05-12                    1440           0        0
    ##  2 1844505072 2016-04-24                    1440           0     1347
    ##  3 1844505072 2016-04-25                    1440           0     1347
    ##  4 1844505072 2016-04-26                    1440           0     1347
    ##  5 1844505072 2016-05-02                    1440           0     1348
    ##  6 1844505072 2016-05-07                    1440           0     1347
    ##  7 1844505072 2016-05-08                    1440           0     1347
    ##  8 1844505072 2016-05-09                    1440           0     1347
    ##  9 1844505072 2016-05-10                    1440           0     1347
    ## 10 1844505072 2016-05-11                    1440           0     1347
    ## # ℹ 62 more rows
…
